* maxerrs set to 10000
Input file is TestGKP.frg suffix is .frg
Output file is TestGKP.inp 
*** Trying to open directory TestGKP
*** Directory exists TestGKP... 
* Directory TestGKP exists ...nuking
gatekeeperStorePath = TestGKP
* pathToHashTable = TestGKP/phash totalHashSize = 41040
* allocate = 10000
***Initializing 4096 buckets for 1024 elements, mask = 0xfff
***Initializing 4 count buckets 
# GateKeeper $Revision: 1.3 $
# Check_DistanceMessage:  Distance 1 DOES NOT exist!!!Can't delete it... bye
# Line 13 of input
{DST
act:D
acc:1
}
# Check_FragMessage:  Fragment 2 DOES NOT exist!!!# Can't delete it... bye
# Line 17 of input
{FRG
act:D
acc:2
}
# Check_DistanceMessage:  Distance 20000 exists and has been deleted!!! Can't add it... bye
# Line 40 of input
{DST
act:A
acc:20000
med:495
dta:55
}
# Check_FragMessage: invalid type  T 
# Line 58 of input
{FRG
act:A
acc:2000
typ:T
src:
1f
[8418,7954]
.
etm:0
seq:
tgatcaaacgacaatcacttatttagtccctcgaggcgccaccagcaagt
.
qlt:
^ke[ie_ca]j]bdcb\Y]fged_bcej[cYc]k\h^cjdj_\aj^h^jc
.
clr:0,464
}
# Check_FragMessage: invalid char B at position 5 in sequence
# Line 76 of input
{FRG
act:A
acc:2000
typ:R
src:
1f
[8418,7954]
.
etm:0
seq:
tgatcBUGaaacgacaatcacttatttagtccctcgaggcgccaccagcaagt
.
qlt:
^ke[iBUGe_ca]j]bdcb\Y]fged_bcej[cYc]k\h^cjdj_\aj^h^jc
.
clr:0,464
}
# Check_FragMessage: invalid char q at position 5 in quality
# Line 94 of input
{FRG
act:A
acc:2000
typ:R
src:
1f
[8418,7954]
.
etm:0
seq:
tgatcaaacgacaatcacttatttagtccctcgaggcgccaccagcaagt
.
qlt:
^ke[iq_ca]j]bdcb\Y]fged_bcej[cYc]k\h^cjdj_\aj^h^jc
.
clr:0,464
}
# Check_FragMessage: sequence length (51) != (52) quality length
# Line 112 of input
{FRG
act:A
acc:2000
typ:R
src:
1f
[8418,7954]
.
etm:0
seq:
atgatcaaacgacaatcacttatttagtccctcgaggcgccaccagcaagt
.
qlt:
^kee[iee_ca]j]bdcb\Y]fged_bcej[cYc]k\h^cjdj_\aj^h^jc
.
clr:0,464
}
# Check_FragMessage: Invalid clear range (0,464)
# Line 130 of input
{FRG
act:A
acc:2000
typ:R
src:
1f
[8418,7954]
.
etm:0
seq:
tgatcaaacgacaatcacttatttagtccctcgaggcgccaccagcaagt
.
qlt:
^ke[ie_ca]j]bdcb\Y]fged_bcej[cYc]k\h^cjdj_\aj^h^jc
.
clr:0,464
}
# Found a previous link between these two fragments
# Line 218 of input
{LKG
act:A
typ:G
fg1:2001
fg2:2000
etm:0
dst:1
ori:S
}
# Link Mesg:  Can't find link of type M (2001, 2002).. can't delete it
# Line 309 of input
{LKG
act:D
typ:M
fg1:2001
fg2:2002
}
# Check_FragMessage: There are 4 references outstanding to Fragment 2001.
#  Can't delete it...
# Line 315 of input
{FRG
act:D
acc:2001
}
# Link Message:  Fragment 200000 DOES NOT exist!!!Can't reference it... bye
# Line 446 of input
{LKG
act:A
typ:M
fg1:200000
fg2:300000
etm:0
dst:1
ori:O
}
# Found a previous mate link between these two fragments
# Line 456 of input
{LKG
act:A
typ:M
fg1:2
fg2:3
etm:0
dst:1
ori:O
}
# Fragments 2 (type = 2) and 3 (type = 2) are inconsistent with a Guide link(1)
# Line 466 of input
{LKG
act:A
typ:G
fg1:2
fg2:3
etm:0
dst:1
ori:O
}
# Found a previous  link between these two fragments
# Line 476 of input
{LKG
act:A
typ:R
fg1:2
fg2:3
etm:0
dst:1
ori:O
}
# Link Message:  Distance 12 DOES NOT exist!!!Can't add link... bye
# Line 523 of input
{LKG
act:A
typ:M
fg1:2
fg2:3
etm:0
dst:12
ori:O
}
# Warning: Trying to join fragments (2,3) with a mate relationship
# Line 530 of input
{JNC
typ:J
fg1:2
fg2:3
}
# Warning: Trying to join fragments (2,3) with a mate relationship
# Line 535 of input
{JNC
typ:S
fg1:2
fg2:3
}
** Join Link Relax: No Previous (2,3) joins...
# Line 545 of input
{JNC
typ:R
fg1:2
fg2:3
}
#  Successful run with 19 errors < 10000 maxerrs ..removing temp backup files
